{
   "response":{
      "status":"ok",
      "userTier":"developer",
      "total":5966,
      "startIndex":1,
      "pageSize":10,
      "currentPage":1,
      "pages":597,
      "orderBy":"relevance",
      "results":[
         {
            "id":"lifeandstyle/2010/apr/03/easter-recipes-hugh-fearnley-whittingstall",
            "type":"article",
            "sectionId":"lifeandstyle",
            "sectionName":"Life and style",
            "webPublicationDate":"2010-04-02T23:10:14Z",
            "webTitle":"Easter recipes | Hugh Fearnley-Whittingstall",
            "webUrl":"https://www.theguardian.com/lifeandstyle/2010/apr/03/easter-recipes-hugh-fearnley-whittingstall",
            "apiUrl":"https://content.guardianapis.com/lifeandstyle/2010/apr/03/easter-recipes-hugh-fearnley-whittingstall",
            "fields":{
               "headline":"Hugh Fearnley-Whittingstall's Easter recipes",
               "shortUrl":"https://www.theguardian.com/p/2fmx3"
            },
            "tags":[
               {
                  "id":"profile/hughfearnleywhittingstall",
                  "type":"contributor",
                  "webTitle":"Hugh Fearnley-Whittingstall",
                  "webUrl":"https://www.theguardian.com/profile/hughfearnleywhittingstall",
                  "apiUrl":"https://content.guardianapis.com/profile/hughfearnleywhittingstall",
                  "references":[
                     
                  ],
                  "bio":"<p>Hugh Fearnley-Whittingstall is a food and cookery writer, broadcaster and campaigner</p>",
                  "bylineImageUrl":"https://uploads.guim.co.uk/2018/01/25/Hugh-Fearnley-Whittingstall.jpg",
                  "bylineLargeImageUrl":"https://uploads.guim.co.uk/2018/01/25/Hugh_Fearnley-Whittingstall,_L.png",
                  "firstName":"Hugh",
                  "lastName":"Fearnley-Whittingstall"
               }
            ],
            "isHosted":false,
            "pillarId":"pillar/lifestyle",
            "pillarName":"Lifestyle"
         },
         {
            "id":"lifeandstyle/2012/dec/12/venison-loin-brussels-sprouts-recipe",
            "type":"article",
            "sectionId":"food",
            "sectionName":"Food",
            "webPublicationDate":"2012-12-12T13:30:01Z",
            "webTitle":"Venison loin with brussels sprouts recipe | Angela Hartnett",
            "webUrl":"https://www.theguardian.com/lifeandstyle/2012/dec/12/venison-loin-brussels-sprouts-recipe",
            "apiUrl":"https://content.guardianapis.com/lifeandstyle/2012/dec/12/venison-loin-brussels-sprouts-recipe",
            "fields":{
               "headline":"Angela Hartnett's venison loin with brussels sprouts recipe",
               "shortUrl":"https://www.theguardian.com/p/3cfvv"
            },
            "tags":[
               {
                  "id":"profile/angela-hartnett",
                  "type":"contributor",
                  "webTitle":"Angela Hartnett",
                  "webUrl":"https://www.theguardian.com/profile/angela-hartnett",
                  "apiUrl":"https://content.guardianapis.com/profile/angela-hartnett",
                  "references":[
                     
                  ],
                  "bio":"<p>Angela Hartnett is chef patron at Murano restaurant and consults at Whitechapel Gallery and Dining Room, London</p>",
                  "bylineImageUrl":"https://static.guim.co.uk/sys-images/Guardian/Pix/pictures/2014/4/17/1397749328706/AngelaHartnett.jpg",
                  "bylineLargeImageUrl":"https://uploads.guim.co.uk/2017/10/06/Angela-Hartnett,-L.png",
                  "firstName":"hartnett",
                  "lastName":"angela"
               }
            ],
            "isHosted":false,
            "pillarId":"pillar/lifestyle",
            "pillarName":"Lifestyle"
         },
         {
            "id":"lifeandstyle/2014/mar/08/bake-with-bicarbonate-of-soda-bread-recipe-ruby-tandoh",
            "type":"article",
            "sectionId":"lifeandstyle",
            "sectionName":"Life and style",
            "webPublicationDate":"2014-03-08T07:00:33Z",
            "webTitle":"Bicarbonate of soda recipes | Ruby Tandoh",
            "webUrl":"https://www.theguardian.com/lifeandstyle/2014/mar/08/bake-with-bicarbonate-of-soda-bread-recipe-ruby-tandoh",
            "apiUrl":"https://content.guardianapis.com/lifeandstyle/2014/mar/08/bake-with-bicarbonate-of-soda-bread-recipe-ruby-tandoh",
            "fields":{
               "headline":"The loaf scientific: baking with bicarb",
               "shortUrl":"https://www.theguardian.com/p/3nae2"
            },
            "tags":[
               {
                  "id":"profile/ruby-tandoh",
                  "type":"contributor",
                  "webTitle":"Ruby Tandoh",
                  "webUrl":"https://www.theguardian.com/profile/ruby-tandoh",
                  "apiUrl":"https://content.guardianapis.com/profile/ruby-tandoh",
                  "references":[
                     
                  ],
                  "bio":"<p>Ruby Tandoh is a food writer, blogger and author. Ruby was a contestant in the 2013 series of The Great British Bake Off</p>",
                  "bylineImageUrl":"https://uploads.guim.co.uk/2018/02/05/Ruby-Tandoh.jpg",
                  "bylineLargeImageUrl":"https://uploads.guim.co.uk/2018/02/05/Ruby_Tandoh,_L.png",
                  "firstName":"Ruby ",
                  "lastName":"Tandoh",
                  "twitterHandle":"rubytandoh"
               }
            ],
            "isHosted":false,
            "pillarId":"pillar/lifestyle",
            "pillarName":"Lifestyle"
         },
         {
            "id":"lifeandstyle/2010/sep/30/linguine-clams-recipe",
            "type":"article",
            "sectionId":"food",
            "sectionName":"Food",
            "webPublicationDate":"2010-09-30T06:00:00Z",
            "webTitle":"Linguine with clams recipe",
            "webUrl":"https://www.theguardian.com/lifeandstyle/2010/sep/30/linguine-clams-recipe",
            "apiUrl":"https://content.guardianapis.com/lifeandstyle/2010/sep/30/linguine-clams-recipe",
            "fields":{
               "headline":"Linguine with clams recipe",
               "shortUrl":"https://www.theguardian.com/p/2k2q2"
            },
            "tags":[
               {
                  "id":"profile/sybil-kapoor",
                  "type":"contributor",
                  "webTitle":"Sybil Kapoor",
                  "webUrl":"https://www.theguardian.com/profile/sybil-kapoor",
                  "apiUrl":"https://content.guardianapis.com/profile/sybil-kapoor",
                  "references":[
                     
                  ],
                  "firstName":"kapoor",
                  "lastName":"sybil"
               }
            ],
            "isHosted":false,
            "pillarId":"pillar/lifestyle",
            "pillarName":"Lifestyle"
         },
         {
            "id":"lifeandstyle/2011/apr/18/salt-cod-blood-orange-salad",
            "type":"article",
            "sectionId":"food",
            "sectionName":"Food",
            "webPublicationDate":"2011-04-18T08:30:00Z",
            "webTitle":"Salt cod and blood orange salad with black olives recipe",
            "webUrl":"https://www.theguardian.com/lifeandstyle/2011/apr/18/salt-cod-blood-orange-salad",
            "apiUrl":"https://content.guardianapis.com/lifeandstyle/2011/apr/18/salt-cod-blood-orange-salad",
            "fields":{
               "headline":"Salt cod and blood orange salad with black olives recipe",
               "shortUrl":"https://www.theguardian.com/p/2zfqb"
            },
            "tags":[
               {
                  "id":"profile/jose-pizarro",
                  "type":"contributor",
                  "webTitle":"José Pizarro",
                  "webUrl":"https://www.theguardian.com/profile/jose-pizarro",
                  "apiUrl":"https://content.guardianapis.com/profile/jose-pizarro",
                  "references":[
                     
                  ],
                  "bio":"<p><a href=\"http://www.josepizarro.com/\">José Pizarro</a> is chef and owner of <a href=\"http://www.josepizarro.com/restaurants/jose/\">Jose</a> and <a href=\"http://www.josepizarro.com/restaurants/pizarro/\">Pizarro</a>, his eponymous tapas bar and restaurant respectively, both nestled on Bermondsey Street, near London Bridge.<br />Jose prides himself on quality, simple, seasonal cooking using the freshest possible ingredients</p>",
                  "bylineImageUrl":"https://static.guim.co.uk/sys-images/Guardian/Pix/pictures/2011/12/19/1324290811194/Jos--Pizarro-003.jpg",
                  "firstName":"pizarro",
                  "lastName":"josé"
               }
            ],
            "isHosted":false,
            "pillarId":"pillar/lifestyle",
            "pillarName":"Lifestyle"
         },
         {
            "id":"lifeandstyle/2013/may/25/readers-recipe-swap-sugar-on-top",
            "type":"article",
            "sectionId":"lifeandstyle",
            "sectionName":"Life and style",
            "webPublicationDate":"2013-05-25T06:01:02Z",
            "webTitle":"Readers' recipe swap: sugar on top | Felicity Cloake",
            "webUrl":"https://www.theguardian.com/lifeandstyle/2013/may/25/readers-recipe-swap-sugar-on-top",
            "apiUrl":"https://content.guardianapis.com/lifeandstyle/2013/may/25/readers-recipe-swap-sugar-on-top",
            "fields":{
               "headline":"Readers' recipe swap: sugar on top",
               "shortUrl":"https://www.theguardian.com/p/3g3yy"
            },
            "tags":[
               {
                  "id":"profile/felicity-cloake",
                  "type":"contributor",
                  "webTitle":"Felicity Cloake",
                  "webUrl":"https://www.theguardian.com/profile/felicity-cloake",
                  "apiUrl":"https://content.guardianapis.com/profile/felicity-cloake",
                  "references":[
                     
                  ],
                  "bio":"<p>Felicity Cloake is a writer specialising in food and drink and the author of six cookbooks. She is a past winner of the Guild of Food Writers awards for Food Journalist of the Year. <br></p>",
                  "bylineImageUrl":"https://uploads.guim.co.uk/2018/01/29/Felicity-Cloake.jpg",
                  "bylineLargeImageUrl":"https://uploads.guim.co.uk/2018/01/29/Felicity_Cloake,_L.png",
                  "firstName":"Felicity",
                  "lastName":"Cloake"
               }
            ],
            "isHosted":false,
            "pillarId":"pillar/lifestyle",
            "pillarName":"Lifestyle"
         },
         {
            "id":"lifeandstyle/2012/nov/14/partridge-red-chard-bacon-recipe",
            "type":"article",
            "sectionId":"food",
            "sectionName":"Food",
            "webPublicationDate":"2012-11-14T13:44:00Z",
            "webTitle":"Angela Hartnett's partridge with bacon and red chard recipe",
            "webUrl":"https://www.theguardian.com/lifeandstyle/2012/nov/14/partridge-red-chard-bacon-recipe",
            "apiUrl":"https://content.guardianapis.com/lifeandstyle/2012/nov/14/partridge-red-chard-bacon-recipe",
            "fields":{
               "headline":"Angela Hartnett's partridge with bacon and red chard recipe",
               "shortUrl":"https://www.theguardian.com/p/3bzfk"
            },
            "tags":[
               {
                  "id":"profile/angela-hartnett",
                  "type":"contributor",
                  "webTitle":"Angela Hartnett",
                  "webUrl":"https://www.theguardian.com/profile/angela-hartnett",
                  "apiUrl":"https://content.guardianapis.com/profile/angela-hartnett",
                  "references":[
                     
                  ],
                  "bio":"<p>Angela Hartnett is chef patron at Murano restaurant and consults at Whitechapel Gallery and Dining Room, London</p>",
                  "bylineImageUrl":"https://static.guim.co.uk/sys-images/Guardian/Pix/pictures/2014/4/17/1397749328706/AngelaHartnett.jpg",
                  "bylineLargeImageUrl":"https://uploads.guim.co.uk/2017/10/06/Angela-Hartnett,-L.png",
                  "firstName":"hartnett",
                  "lastName":"angela"
               }
            ],
            "isHosted":false,
            "pillarId":"pillar/lifestyle",
            "pillarName":"Lifestyle"
         },
         {
            "id":"lifeandstyle/2013/may/25/quick-pasta-sauces-midweek",
            "type":"article",
            "sectionId":"lifeandstyle",
            "sectionName":"Life and style",
            "webPublicationDate":"2013-05-25T06:00:23Z",
            "webTitle":"Quick pasta sauces for midweek",
            "webUrl":"https://www.theguardian.com/lifeandstyle/2013/may/25/quick-pasta-sauces-midweek",
            "apiUrl":"https://content.guardianapis.com/lifeandstyle/2013/may/25/quick-pasta-sauces-midweek",
            "fields":{
               "headline":"Quick pasta sauces for midweek",
               "shortUrl":"https://www.theguardian.com/p/3g2my"
            },
            "tags":[
               {
                  "id":"profile/sonya-kidney",
                  "type":"contributor",
                  "webTitle":"Sonya Kidney",
                  "webUrl":"https://www.theguardian.com/profile/sonya-kidney",
                  "apiUrl":"https://content.guardianapis.com/profile/sonya-kidney",
                  "references":[
                     
                  ],
                  "bio":"<p>Sonya Kidney is a chef and the owner of Soda delicatessen, Chipping Norton</p>",
                  "bylineImageUrl":"https://static.guim.co.uk/sys-images/Guardian/Pix/pictures/2013/1/9/1357750918084/Sonya-Kidney.jpg",
                  "firstName":"kidney",
                  "lastName":"sonya"
               }
            ],
            "isHosted":false,
            "pillarId":"pillar/lifestyle",
            "pillarName":"Lifestyle"
         },
         {
            "id":"lifeandstyle/2013/jun/15/healthy-snacks-for-breastfeeding-mums",
            "type":"article",
            "sectionId":"lifeandstyle",
            "sectionName":"Life and style",
            "webPublicationDate":"2013-06-15T06:00:00Z",
            "webTitle":"Healthy snacks for breastfeeding mums",
            "webUrl":"https://www.theguardian.com/lifeandstyle/2013/jun/15/healthy-snacks-for-breastfeeding-mums",
            "apiUrl":"https://content.guardianapis.com/lifeandstyle/2013/jun/15/healthy-snacks-for-breastfeeding-mums",
            "fields":{
               "headline":"Healthy snacks for breastfeeding mums",
               "shortUrl":"https://www.theguardian.com/p/3ggp2"
            },
            "tags":[
               {
                  "id":"profile/sonya-kidney",
                  "type":"contributor",
                  "webTitle":"Sonya Kidney",
                  "webUrl":"https://www.theguardian.com/profile/sonya-kidney",
                  "apiUrl":"https://content.guardianapis.com/profile/sonya-kidney",
                  "references":[
                     
                  ],
                  "bio":"<p>Sonya Kidney is a chef and the owner of Soda delicatessen, Chipping Norton</p>",
                  "bylineImageUrl":"https://static.guim.co.uk/sys-images/Guardian/Pix/pictures/2013/1/9/1357750918084/Sonya-Kidney.jpg",
                  "firstName":"kidney",
                  "lastName":"sonya"
               }
            ],
            "isHosted":false,
            "pillarId":"pillar/lifestyle",
            "pillarName":"Lifestyle"
         },
         {
            "id":"lifeandstyle/2012/jan/22/lambs-liver-merguez-spices-hugh-fearnley-whittingstall",
            "type":"article",
            "sectionId":"lifeandstyle",
            "sectionName":"Life and style",
            "webPublicationDate":"2012-01-22T00:05:00Z",
            "webTitle":"Lamb's liver with merguez spices recipe | Hugh Fearnley-Whittingstall",
            "webUrl":"https://www.theguardian.com/lifeandstyle/2012/jan/22/lambs-liver-merguez-spices-hugh-fearnley-whittingstall",
            "apiUrl":"https://content.guardianapis.com/lifeandstyle/2012/jan/22/lambs-liver-merguez-spices-hugh-fearnley-whittingstall",
            "fields":{
               "headline":"Hugh Fearnley-Whittingstall's lamb's liver with merguez spices recipe",
               "shortUrl":"https://www.theguardian.com/p/34njc"
            },
            "tags":[
               {
                  "id":"profile/hughfearnleywhittingstall",
                  "type":"contributor",
                  "webTitle":"Hugh Fearnley-Whittingstall",
                  "webUrl":"https://www.theguardian.com/profile/hughfearnleywhittingstall",
                  "apiUrl":"https://content.guardianapis.com/profile/hughfearnleywhittingstall",
                  "references":[
                     
                  ],
                  "bio":"<p>Hugh Fearnley-Whittingstall is a food and cookery writer, broadcaster and campaigner</p>",
                  "bylineImageUrl":"https://uploads.guim.co.uk/2018/01/25/Hugh-Fearnley-Whittingstall.jpg",
                  "bylineLargeImageUrl":"https://uploads.guim.co.uk/2018/01/25/Hugh_Fearnley-Whittingstall,_L.png",
                  "firstName":"Hugh",
                  "lastName":"Fearnley-Whittingstall"
               }
            ],
            "isHosted":false,
            "pillarId":"pillar/lifestyle",
            "pillarName":"Lifestyle"
         }
      ]
   }
}