{
  "response": {
    "status": "ok",
    "userTier": "developer",
    "total": 5971,
    "startIndex": 1,
    "pageSize": 2,
    "currentPage": 1,
    "pages": 598,
    "orderBy": "newest",
    "results": [
      {
        "id": "id0",
        "type": "article",
        "sectionId": "food",
        "sectionName": "Food",
        "webPublicationDate": "2021-10-11T12:00:04Z",
        "webTitle": "Thomasina Miers’ recipe for roast chicken legs with sticky figs, red onions and oloroso vinegar | The new flexitarian",
        "webUrl": "https://www.theguardian.com/food/2021/oct/11/thomasina-miers-recipe-for-roast-chicken-legs-with-sticky-figs-red-onions-and-oloroso-vinegar",
        "apiUrl": "https://content.guardianapis.com/food/2021/oct/11/thomasina-miers-recipe-for-roast-chicken-legs-with-sticky-figs-red-onions-and-oloroso-vinegar",
        "fields": {
          "headline": "Thomasina Miers’ recipe for roast chicken legs with sticky figs, red onions and oloroso vinegar",
          "standfirst": "<p>The fruitful bounty of a Spanish autumn is showcased in this delicious savoury-sweet roast supper</p>",
          "trailText": "The fruitful bounty of a Spanish autumn is showcased in this delicious savoury-sweet roast supper",
          "byline": "Thomasina Miers",
          "main": "<figure class=\"element element-image\" data-media-id=\"5bf2f99f2fe5e722a9bfbfdc8fb4ad02d736973e\"> <img src=\"https://media.guim.co.uk/5bf2f99f2fe5e722a9bfbfdc8fb4ad02d736973e/0_1185_5792_5792/1000.jpg\" alt=\"Thomasina Miers roast chicken legs with sticky figs, red onions and oloroso vinegar.",
          "body": "<p>While travelling through Spain one October, cooking as I went, I was surprised to see how late the fig season was. Sweet, sticky fruit hung from the laden branches by the hundreds, and we ate them everywhere we went – in syrup, with cheese, baked and fresh. My favourite of all, though, were the figs roasted in savoury guises.",
          "newspaperPageNumber": "7",
          "wordcount": "483",
          "commentCloseDate": "2021-10-17T23:00:00Z",
          "commentable": "true",
          "firstPublicationDate": "2021-10-11T12:00:04Z",
          "isInappropriateForSponsorship": "false",
          "isPremoderated": "false",
          "lastModified": "2021-10-11T12:00:04Z",
          "newspaperEditionDate": "2021-10-09T00:00:00Z",
          "productionOffice": "UK",
          "publication": "The Guardian",
          "shortUrl": "https://www.theguardian.com/p/tn958",
          "shouldHideAdverts": "false",
          "showInRelatedContent": "true",
          "thumbnail": "https://media.guim.co.uk/5bf2f99f2fe5e722a9bfbfdc8fb4ad02d736973e/201_1677_5591_3355/500.jpg",
          "legallySensitive": "false",
          "lang": "en",
          "isLive": "true",
          "bodyText": "While travelling through Spain one October, cooking as I went, I was surprised to see how late the fig season was. Sweet, sticky fruit hung from the laden branches by the hundreds, and we ate them everywhere we went – in syrup, with cheese, baked and fresh. My favourite of all, though, were the figs roasted in savoury guises.",
          "charCount": "2708",
          "shouldHideReaderRevenue": "false",
          "showAffiliateLinks": "true",
          "bylineHtml": "<a href=\"profile/thomasina-miers\">Thomasina Miers</a>"
        },
        "tags": [
          {
            "id": "profile/thomasina-miers",
            "type": "contributor",
            "webTitle": "Thomasina Miers",
            "webUrl": "https://www.theguardian.com/profile/thomasina-miers",
            "apiUrl": "https://content.guardianapis.com/profile/thomasina-miers",
            "references": [],
            "bio": "<p>Thomasina Miers is chef and food writer. She is a former MasterChef winner and founder of the Wahaca group of Mexican restaurants<br><br></p>",
            "bylineImageUrl": "https://uploads.guim.co.uk/2018/11/02/Thomasina-Miers.jpg",
            "bylineLargeImageUrl": "https://uploads.guim.co.uk/2018/11/02/Thomasina_Miers,_L.png",
            "firstName": "Thomasina",
            "lastName": "Miers",
            "twitterHandle": "thomasinamiers"
          }
        ],
        "isHosted": false,
        "pillarId": "pillar/lifestyle",
        "pillarName": "Lifestyle"
      },
      {
        "id": "id1",
        "type": "article",
        "sectionId": "food",
        "sectionName": "Food",
        "webPublicationDate": "2021-10-11T10:00:28Z",
        "webTitle": "Rachel Roddy’s recipe for cod with tomatoes and capers | A kitchen in Rome",
        "webUrl": "https://www.theguardian.com/food/2021/oct/11/rachel-roddy-recipe-cod-tomatoes-capers",
        "apiUrl": "https://content.guardianapis.com/food/2021/oct/11/rachel-roddy-recipe-cod-tomatoes-capers",
        "fields": {
          "headline": "Rachel Roddy’s recipe for cod with tomatoes and capers",
          "standfirst": "<p>A rush of smells and emotions turn into a delicious, hearty, family meal</p>",
          "trailText": "A rush of smells and emotions turn into a delicious, hearty, family meal",
          "byline": "Rachel Roddy",
          "main": "<figure class=\"element element-image\" data-media-id=\"4920dd3e86ba4245db0f7b920dd49b75d03556ed\"> <img src=\"https://media.guim.co.uk/4920dd3e86ba4245db0f7b920dd49b75d03556ed/77_0_7715_6000/1000.jpg\" alt=\"Rachel Roddy's cod with tomatoes and capers.\" width=\"1000\" height=\"778\" class=\"gu-image\" /> <figcaption> <span class=\"element-image__caption\">Rachel Roddy's cod with tomatoes and capers.</span> <span class=\"element-image__credit\">Photograph: Rachel Roddy/The Guardian</span> </figcaption> </figure>",
          "body": "<p>The cod was handsome, fresh and smelled like the sea: salt, iodine and cucumber. Ideally, we would have eaten it straight away, but other plans meant we stored it carefully in the fridge, where it stayed slightly longer than planned. Which meant that, while it was still perfectly good, by the time we came to cook it, a faint fishiness had set in – not unpleasant, but persistent.",
          "newspaperPageNumber": "21",
          "wordcount": "1057",
          "commentCloseDate": "2021-10-17T23:00:00Z",
          "commentable": "true",
          "firstPublicationDate": "2021-10-11T10:00:28Z",
          "isInappropriateForSponsorship": "false",
          "isPremoderated": "false",
          "lastModified": "2021-10-11T10:00:28Z",
          "newspaperEditionDate": "2021-10-09T00:00:00Z",
          "productionOffice": "UK",
          "publication": "The Guardian",
          "shortUrl": "https://www.theguardian.com/p/jvq8z",
          "shouldHideAdverts": "false",
          "showInRelatedContent": "true",
          "thumbnail": "https://media.guim.co.uk/4920dd3e86ba4245db0f7b920dd49b75d03556ed/75_1105_7608_4563/500.jpg",
          "legallySensitive": "false",
          "lang": "en",
          "isLive": "true",
          "bodyText": "The cod was handsome, fresh and smelled like the sea: salt, iodine and cucumber. Ideally, we would have eaten it straight away, but other plans meant we stored it carefully in the fridge, where it stayed slightly longer than planned. Which meant that, while it was still perfectly good, by the time we came to cook it, a faint fishiness had set in – not unpleasant, but persistent. Every time anyone opened the fridge, I could see their noses twitch, and thoughts flash across their face. “Dead fish,”",
          "charCount": "5905",
          "shouldHideReaderRevenue": "false",
          "showAffiliateLinks": "true",
          "bylineHtml": "<a href=\"profile/rachel-roddy\">Rachel Roddy</a>"
        },
        "tags": [
          {
            "id": "profile/rachel-roddy",
            "type": "contributor",
            "webTitle": "Rachel Roddy",
            "webUrl": "https://www.theguardian.com/profile/rachel-roddy",
            "apiUrl": "https://content.guardianapis.com/profile/rachel-roddy",
            "references": [],
            "bio": "<p>Rachel Roddy is a food writer and author based in Rome</p>",
            "bylineImageUrl": "https://uploads.guim.co.uk/2018/01/29/Rachel-Roddy.jpg",
            "bylineLargeImageUrl": "https://uploads.guim.co.uk/2018/01/29/Rachel_Roddy,_L.png",
            "firstName": "Rachel",
            "lastName": "Roddy",
            "twitterHandle": "racheleats"
          }
        ],
        "isHosted": false,
        "pillarId": "pillar/lifestyle",
        "pillarName": "Lifestyle"
      }
    ]
  }
}
